module gitlab.com/chitataunga/microservice-in-go/recipe-api

go 1.18

require (
	github.com/gin-gonic/gin v1.8.1
	github.com/rs/xid v1.4.0
	gitlab.com/chitataunga/microservice-in-go/recipe-api/models v0.0.0-00010101000000-000000000000
	gitlab.com/chitataunga/microservice-in-go/recipe-api/services/recipe-service v0.0.0-00010101000000-000000000000
)

require (
	github.com/gin-contrib/sse v0.1.0 // indirect
	github.com/go-playground/locales v0.14.0 // indirect
	github.com/go-playground/universal-translator v0.18.0 // indirect
	github.com/go-playground/validator/v10 v10.11.0 // indirect
	github.com/goccy/go-json v0.9.8 // indirect
	github.com/json-iterator/go v1.1.12 // indirect
	github.com/leodido/go-urn v1.2.1 // indirect
	github.com/mattn/go-isatty v0.0.14 // indirect
	github.com/modern-go/concurrent v0.0.0-20180306012644-bacd9c7ef1dd // indirect
	github.com/modern-go/reflect2 v1.0.2 // indirect
	github.com/pelletier/go-toml/v2 v2.0.2 // indirect
	github.com/ugorji/go/codec v1.2.7 // indirect
	golang.org/x/crypto v0.0.0-20220622213112-05595931fe9d // indirect
	golang.org/x/net v0.0.0-20220708220712-1185a9018129 // indirect
	golang.org/x/sys v0.0.0-20220708085239-5a0f0661e09d // indirect
	golang.org/x/text v0.3.7 // indirect
	google.golang.org/protobuf v1.28.0 // indirect
	gopkg.in/yaml.v2 v2.4.0 // indirect
)

replace gitlab.com/chitataunga/microservice-in-go/recipe-api/models => ./models

replace gitlab.com/chitataunga/microservice-in-go/recipe-api/services/recipe-service => ./services/recipe_service
